300300300300300300300300300300300300300300300300030003000000000030000000000000000300
111114111111111111111111111111111111111111111111010001000000000010000000030000001110
100020000000000000000001111111111111111111111111010000000300000000000000010000000000
100020000000000000000000000000000000000000000000000000000100000003000000000000000000
111111111114411111111111111111111101111111111111110000000000000001000000000300000000
110000011111001111110000000000000000000000000000010000000000000000000000000100000000
110000000011100111110111111110111111111111111111010030000040000030000000000000000000
114111111011110000016100000010000010000010000111010010000000000010000003000003000000
110100000000011111010101111111111110101010101111010000003000000000000001000001000000
110101111111111111010100000000000000111010110111010000001000004000000000000000000000
100000000000000011010101111111111110100000000000010000000000000000030000030000400000
101001000000100011010101000000100010111111111111110300000000000000010000010000000000
100000001000000011010101011110101110000000000000010100004000030000000000000000030000
101001000000110011010101010110100011101011111111110000000000010000400030000000010000
100000000000000011010101010000101111101000100000010000030000000030000010000000000000
111000100010000011010161011111100011101111101111110000010000000010000000000000003000
100000000000000011010100000000000110000000000000010000000000300000000000003000001000
100010001000000011010111111111111111111111111101110000000000100000003000001000000000
100000000000000011610114100050005000500050005101110000000000000000001000000000400000
111111111000000000000000005000500050005000500000000000000000000000000000000000000000
111111111111111111111111111111111111111111111111111111100000000004000000000000000000
000000000000000000000000000000000000000000000000000000066666666666666666666666666666
